[
    {
        "kyc": [
            [
                "__origination__",
                "78027"
            ]
        ]
    },
    {
        "kyc": [
            [
                "__origination__",
                "78027"
            ],
            [
                "addMembers",
                "75546"
            ],
            [
                "addMembers",
                "75546"
            ]
        ]
    },
    {
        "kyc": [
            [
                "__origination__",
                "78027"
            ],
            [
                "addMembers",
                "75546"
            ],
            [
                "removeMembers",
                "70140"
            ]
        ]
    },
    {
        "kyc": [
            [
                "__origination__",
                "78027"
            ],
            [
                "addMembers",
                "70478"
            ],
            [
                "setMemberCountry",
                "71357"
            ]
        ]
    }
]